…
Home 
```

```
## # A tibble: 40 × 4
##    home_team                Win  Lose ratio_h
##    <chr>                  <int> <int>   <dbl>
##  1 Anguilla                   2    17   0.118
##  2 Antigua and Barbuda       50    42   1.19 
##  3 Aruba                     18    31   0.581
##  4 Bahamas                    9    10   0.9  
##  5 Barbados                  60    54   1.11 
##  6 Belize                    15    19   0.789
##  7 Bermuda                   35    30   1.17 
##  8 Bonaire                    1     5   0.2  
##  9 British Virgin Islands     7    23   0.304
## 10 Canada                    75    24   3.12 
## # ℹ 30 more rows
```
…
Away
```

```
## # A tibble: 40 × 4
##    away_team                Win  Lose ratio_a
##    <chr>                  <int> <int>   <dbl>
##  1 Anguilla                   1    41  0.0244
##  2 Antigua and Barbuda       15    58  0.259 
##  3 Aruba                      5    45  0.111 
##  4 Bahamas                    4    18  0.222 
##  5 Barbados                  26    69  0.377 
##  6 Belize                     6    38  0.158 
##  7 Bermuda                   16    40  0.4   
##  8 Bonaire                    6     6  1     
##  9 British Virgin Islands     6    41  0.146 
## 10 Canada                    49    57  0.860 
## # ℹ 30 more rows
```
…
